<svg xmlns="http://www.w3.org/2000/svg" width="288" height="217" viewBox="0 0 288 217">
    <defs>
        <linearGradient id="qx0c12fipb" x1=".663" x2="-.386" y1="-.048" y2="2.87" gradientUnits="objectBoundingBox">
            <stop offset="0" stop-color="#fff" stop-opacity="0"/>
            <stop offset="1" stop-color="#fff" stop-opacity=".4"/>
        </linearGradient>
        <clipPath id="jyg89sg11a">
            <path fill="#fff" d="M0 0H288V217H0z" transform="translate(-10642 -19649)"/>
        </clipPath>
    </defs>
    <g clip-path="url(#jyg89sg11a)" transform="translate(10642 19649)">
        <path fill="url(#qx0c12fipb)" d="M57.943 247.174A135.929 135.929 0 0 1 3.449 105.336l67.035 46.938 10.842 61.51 94.623-16.684 11.7-16.7L20.818 63.588q1.8-2.859 3.756-5.662t4.039-5.471l222.34 155.688q-1.8 2.859-3.756 5.662a135.86 135.86 0 0 1-189.254 33.369zm144.846-119.2l-3.334-18.928 70.461 49.338a134.285 134.285 0 0 1-3.217 14.34zm-98.217 37.8l-2.609-14.795-2.834.355-4.992 7.135-4.871-3.408 15.594-22.268 4.869 3.414-6.623 9.453 17.055-2.148 6.266 4.385-18.5 2.328 3.6 20.42zm-26.436-18.51l-1.8-24.068L65.613 138.5l-4.869-3.412 15.588-22.264 4.875 3.408 1.8 24.074L93.724 125l4.871 3.412-15.588 22.266zm118.311-55.25l-3.33-18.928L271.54 128a135.9 135.9 0 0 1-.039 16.566zM50.312 127.785l1.125-6.473-9.352-6.547-5.7 3.273-5.568-3.9 24.298-13.958 1.732-1 4.178 2.92-.344 1.973-4.807 27.605zm-3.346-15.818l5.432 3.807 1.346-7.705zM112.843 1.951A137.394 137.394 0 0 1 133.74 0l130.552 91.412a136.823 136.823 0 0 1 5.309 20.3zM21.437 107.568L5.787 96.609l15.587-22.263 14.262 9.982a8.066 8.066 0 0 1 1.979 11.24 7.4 7.4 0 0 1-4.109 2.93 7.4 7.4 0 0 1-.834 7.092 8.068 8.068 0 0 1-11.234 1.979zm-7.861-11.724l9.74 6.816a2.974 2.974 0 0 0 3.412-4.871l-9.74-6.814zm6.338-9.044l8.344 5.848a2.972 2.972 0 0 0 3.408-4.869l-8.346-5.85zM36.58 43.109a132.54 132.54 0 0 1 9.938-9.629l56.868 39.82-18.924 3.335zm19.93-17.568a134.025 134.025 0 0 1 12.37-7.924l70.467 49.34-18.928 3.334zM157.46 1.676A136.2 136.2 0 0 1 254.6 69.7zM81.32 11.4a134.42 134.42 0 0 1 15.554-5.7L175.3 60.619l-18.928 3.336z" transform="translate(-10640.136 -19619.867)"/>
    </g>
</svg>
